digraph tree {
"None"->"(11, 6)";
"(11, 6)"->"(11, 7)";
"(11, 6)"->"(12, 6)";
"(11, 6)"->"(10, 6)";
"(11, 7)"->"(11, 8)";
"(12, 6)"->"(13, 6)";
"(10, 6)"->"(9, 6)";
"(11, 8)"->"(10, 8)";
"(13, 6)"->"(13, 7)";
"(13, 6)"->"(13, 5)";
"(9, 6)"->"(8, 6)";
"(10, 8)"->"(9, 8)";
"(13, 7)"->"(13, 8)";
"(13, 5)"->"(13, 4)";
"(8, 6)"->"(7, 6)";
"(9, 8)"->"(8, 8)";
"(13, 4)"->"(14, 4)";
"(13, 4)"->"(12, 4)";
"(7, 6)"->"(6, 6)";
"(8, 8)"->"(7, 8)";
"(14, 4)"->"(15, 4)";
"(12, 4)"->"(12, 3)";
"(12, 4)"->"(11, 4)";
"(6, 6)"->"(6, 5)";
"(7, 8)"->"(6, 8)";
"(15, 4)"->"(16, 4)";
"(12, 3)"->"(12, 2)";
"(11, 4)"->"(10, 4)";
"(6, 5)"->"(6, 4)";
"(6, 8)"->"(5, 8)";
"(16, 4)"->"(16, 5)";
"(16, 4)"->"(16, 3)";
"(12, 2)"->"(13, 2)";
"(12, 2)"->"(11, 2)";
"(10, 4)"->"(9, 4)";
"(6, 4)"->"(6, 3)";
"(5, 8)"->"(4, 8)";
"(16, 5)"->"(16, 6)";
"(16, 3)"->"(17, 3)";
"(13, 2)"->"(13, 1)";
"(11, 2)"->"(10, 2)";
"(9, 4)"->"(8, 4)";
"(6, 3)"->"(7, 3)";
"(6, 3)"->"(5, 3)";
"(4, 8)"->"(4, 7)";
"(16, 6)"->"(17, 6)";
"(17, 3)"->"(18, 3)";
"(13, 1)"->"(14, 1)";
"(10, 2)"->"(10, 1)";
"(8, 4)"->"(8, 3)";
"(7, 3)"->"(8, 3)";
"(5, 3)"->"(4, 3)";
"(4, 7)"->"(3, 7)";
"(17, 6)"->"(18, 6)";
"(18, 3)"->"(18, 4)";
"(14, 1)"->"(15, 1)";
"(10, 1)"->"(9, 1)";
"(4, 3)"->"(3, 3)";
"(3, 7)"->"(2, 7)";
"(18, 6)"->"(19, 6)";
"(18, 4)"->"(19, 4)";
"(15, 1)"->"(16, 1)";
"(9, 1)"->"(8, 1)";
"(3, 3)"->"(2, 3)";
"(2, 7)"->"(1, 7)";
"(19, 6)"->"(20, 6)";
"(19, 4)"->"(20, 4)";
"(16, 1)"->"(17, 1)";
"(8, 1)"->"(7, 1)";
"(2, 3)"->"(1, 3)";
"(1, 7)"->"(1, 8)";
"(20, 6)"->"(20, 7)";
"(20, 4)"->"(20, 3)";
"(17, 1)"->"(18, 1)";
"(7, 1)"->"(6, 1)";
"(1, 3)"->"(1, 4)";
"(20, 7)"->"(20, 8)";
"(20, 3)"->"(20, 2)";
"(18, 1)"->"(19, 1)";
"(6, 1)"->"(5, 1)";
"(1, 4)"->"(1, 5)";
"(20, 8)"->"(19, 8)";
"(20, 2)"->"(20, 1)";
"(19, 1)"->"(20, 1)";
"(5, 1)"->"(4, 1)";
"(1, 5)"->"(2, 5)";
"(19, 8)"->"(18, 8)";
"(4, 1)"->"(3, 1)";
"(2, 5)"->"(3, 5)";
"(18, 8)"->"(17, 8)";
"(3, 1)"->"(2, 1)";

}